<svg xmlns="http://www.w3.org/2000/svg" xmlns:xlink="http://www.w3.org/1999/xlink" xmlns:ev="http://www.w3.org/2001/xml-events"
		xmlns:v="http://schemas.microsoft.com/visio/2003/SVGExtensions/" width="0.82144in" height="1.46711in"
		viewBox="0 0 59.1437 105.632" xml:space="preserve" color-interpolation-filters="sRGB" class="st2">

		 <linearGradient id="anim"  x1="0%" y1="100%">
      <stop offset="0%" stop-color="#C7C402" stop-opacity="1">
		<animate attributeName="stop-color" 
		values="yellow;yellow;yellow" dur="0ms" repeatCount="indefinite"/>
		</stop>
    </linearGradient>
    
		<g id="shape1-1" v:mID="1" v:groupContext="shape" transform="translate(0.375,-0.375)">
			<path fill="url(#anim)"  d="M43.65 45.63 A24.0945 24.0945 -180 1 0 19.84 45.95 L19.84 51.77 L5.67 51.77 L5.67 55.93 L0 55.93 L0 73.32 L11.34
						 73.32 L11.34 105.63 L36.85 105.63 L36.85 102.42 L41.67 102.42 L41.67 97.13 L53.86 97.13 L53.86 74.45 L58.39
						 74.45 L58.39 51.77 L43.65 51.77 L43.65 45.63 Z" class="st1"/>
		</g>
</svg>
