<svg xmlns="http://www.w3.org/2000/svg" xmlns:xlink="http://www.w3.org/1999/xlink" xmlns:ev="http://www.w3.org/2001/xml-events"
		xmlns:v="http://schemas.microsoft.com/visio/2003/SVGExtensions/" width="0.931677in" height="0.600968in"
		viewBox="0 0 67.0807 43.2697" xml:space="preserve" color-interpolation-filters="sRGB" class="st2">

	 <linearGradient id="anim"  x1="0%" y1="100%">
      <stop offset="0%" stop-color="#C7C402" stop-opacity="1">
		<animate attributeName="stop-color" 
		values="yellow;yellow;yellow" dur="0ms" repeatCount="indefinite"/>
		</stop>
    </linearGradient>
    
		<g id="shape1-1" v:mID="1" v:groupContext="shape" transform="translate(0.375,-0.375)">
			<path fill="url(#anim)"   d="M0 0.75 L66.33 0.75 L66.33 14.92 L60.66 14.92 L60.66 6.42 L56.03 6.42 L56.03 26.26 L39.12 26.26 L39.12 43.27
						 L26.65 43.27 L26.65 38.36 L23.91 38.36 L23.91 36.47 L20.5 36.47 L20.5 37.79 L13.61 37.79 L13.61 26.26 L0
						 26.26 L0 0.75 Z" class="st1"/>
		</g>
</svg>
