<svg xmlns="http://www.w3.org/2000/svg" xmlns:xlink="http://www.w3.org/1999/xlink" xmlns:ev="http://www.w3.org/2001/xml-events"
		xmlns:v="http://schemas.microsoft.com/visio/2003/SVGExtensions/" width="3.21908in" height="1.17183in"
		viewBox="0 0 231.774 84.372" xml:space="preserve" color-interpolation-filters="sRGB" class="st2">

	
<linearGradient id="anim"  x1="0%" y1="100%">
      <stop offset="0%" stop-color="red" stop-opacity="1">
      		<animate attributeName="stop-color" 
      			values="red;rgba(255,0,0,0.3);red" dur="0ms" repeatCount="indefinite"/>
		</stop>
    </linearGradient>
    
    		<g id="shape1-1" v:mID="1" v:groupContext="shape" transform="translate(0.375,-0.375)">
			<path fill="url(#anim)"   d="M0 18.61 L86.46 18.61 L86.46 0.75 L154.49 0.75 L154.49 19.18 L231.02 19.18 L231.02 58.86 L140.31 58.86 L140.31
						 84.37 L99.21 84.37 L99.21 66.69 L85.04 66.69 L85.04 58.86 L53.86 58.86 L53.86 84.37 L11.34 84.37 L11.34
						 58.86 L0 58.86 L0 18.61 Z" class="st1"/>
		</g>
</svg>
