<svg xmlns="http://www.w3.org/2000/svg" xmlns:xlink="http://www.w3.org/1999/xlink" xmlns:ev="http://www.w3.org/2001/xml-events"
		xmlns:v="http://schemas.microsoft.com/visio/2003/SVGExtensions/" width="2.2742in" height="1.38837in"
		viewBox="0 0 163.742 99.9626" xml:space="preserve" color-interpolation-filters="sRGB" class="st2">

    
		<g id="shape1-1" v:mID="1" v:groupContext="shape" transform="translate(0.375,-0.375)">
			<path fill="#D7D7D7" d="M0 31.93 L19.84 31.93 L19.84 9.25 L38.27 9.25 L38.27 22.01 L55.28 22.01 L55.28 7.84 L85.04 7.84 L85.04 0.75
						 L143.15 0.75 L143.15 14.92 L162.99 14.92 L162.99 84.37 L143.15 84.37 L143.15 99.96 L85.04 99.96 L85.04 92.88
						 L19.84 92.88 L19.84 68.78 L0 68.78 L0 31.93 Z" class="st1"/>
		</g>
</svg>
