<svg xmlns="http://www.w3.org/2000/svg" xmlns:xlink="http://www.w3.org/1999/xlink" xmlns:ev="http://www.w3.org/2001/xml-events"
		xmlns:v="http://schemas.microsoft.com/visio/2003/SVGExtensions/" width="1.54585in" height="0.955299in"
		viewBox="0 0 111.301 68.7815" xml:space="preserve" color-interpolation-filters="sRGB" class="st2">

<linearGradient id="anim"  fy="0">
      <stop offset="0" stop-color="#148F01">
		</stop>
		<stop offset=".7" stop-color="#46DF04">
		</stop>
    </linearGradient>
    
		<g id="shape1-1" v:mID="1" v:groupContext="shape" transform="translate(0.375,-0.375)">
			<path fill="url(#anim)" stroke='rgba(49,163,0,0.7)' d="M0.57 0.75 L110.55 0.75 L110.55 68.78 L45.35 68.78 L45.35 64.53 L0 64.53 L0.57 0.75 Z" class="st1"/>
		</g>
</svg>
