<svg version="1.1"
	 id="Layer_1" xmlns:v="http://schemas.microsoft.com/visio/2003/SVGExtensions/" xmlns:ev="http://www.w3.org/2001/xml-events"
	 xmlns="http://www.w3.org/2000/svg" xmlns:xlink="http://www.w3.org/1999/xlink" x="0px" y="0px" width="70.865px"
	 height="42.52px" viewBox="18.24 18.24 70.865 42.52" enable-background="new 18.24 18.24 70.865 42.52" xml:space="preserve">
			<linearGradient id="anim"  x1="0%" y1="100%">
      <stop offset="0%" stop-color="red" stop-opacity="1">
      		<animate attributeName="stop-color" 
      			values="red;rgba(255,0,0,0.3);red" dur="0ms" repeatCount="indefinite"/>
		</stop>
    </linearGradient>
        
        <g transform="translate(18.24,-18.24)">
			<g>
				<path fill="url(#anim)"   d="M0,37.48c0-0.55,0.45-1,1-1h68.865c0.55,0,1,0.45,1,1V78c0,0.55-0.45,1-1,1H1c-0.55,0-1-0.45-1-1V37.48z" >
					
        </path>
			</g>
		</g>
</svg>
